^C:\USERS\JONATHAN_MOORE\DOCUMENTS\OS\BASE\SINGULARITY+\WINDOWS\WM\WINDOWSUBCLASSING\BIN\X64\DEBUG\DLLMAIN.OBJ|C:\USERS\JONATHAN_MOORE\DOCUMENTS\OS\BASE\SINGULARITY+\WINDOWS\WM\WINDOWSUBCLASSING\BIN\X64\DEBUG\WINDOWSUBCLASSING.OBJ|C:\USERS\JONATHAN_MOORE\DOCUMENTS\OS\BASE\SINGULARITY+\WINDOWS\WM\WINDOWSUBCLASSING\BIN\X64\DEBUG\WINDOWSUBCLASSING.RES
C:\USERS\JONATHAN_MOORE\DOCUMENTS\OS\BASE\SINGULARITY+\WINDOWS\WM\BIN\X64\DEBUG\WINDOWSUBCLASSING64.ILK
C:\USERS\JONATHAN_MOORE\DOCUMENTS\OS\BASE\SINGULARITY+\WINDOWS\WM\BIN\X64\DEBUG\WINDOWSUBCLASSING64.DLL
C:\USERS\JONATHAN_MOORE\DOCUMENTS\OS\BASE\SINGULARITY+\WINDOWS\WM\BIN\X64\DEBUG\WINDOWSUBCLASSING64.PDB
