^C:\ROSLYN-VISUAL-STUDIO-2015-UPDATE-2\SRC\VISUALSTUDIO\CORE\DEF\COMMANDS.VSCT
C:\ROSLYN-VISUAL-STUDIO-2015-UPDATE-2\SRC\VISUALSTUDIO\CORE\DEF\COMMANDS.VSCT
C:\PROGRAM FILES (X86)\MICROSOFT VISUAL STUDIO 14.0\VSSDK\VISUALSTUDIOINTEGRATION\COMMON\INC\VSSHLIDS.H
C:\PROGRAM FILES (X86)\MICROSOFT VISUAL STUDIO 14.0\VSSDK\VISUALSTUDIOINTEGRATION\COMMON\INC\KNOWNIMAGEIDS.VSCT
C:\PROGRAM FILES (X86)\MICROSOFT VISUAL STUDIO 14.0\VSSDK\VISUALSTUDIOINTEGRATION\COMMON\INC\STDIDCMD.H
