^C:\USERS\JONATHAN_MOORE\DOCUMENTS\OS\BASE\SINGULARITY+\WINDOWS\WM\SYSTEMTRAYHOOK\BIN\X64\DEBUG\DLLMAIN.OBJ|C:\USERS\JONATHAN_MOORE\DOCUMENTS\OS\BASE\SINGULARITY+\WINDOWS\WM\SYSTEMTRAYHOOK\BIN\X64\DEBUG\SYSTEMTRAYHOOK.OBJ|C:\USERS\JONATHAN_MOORE\DOCUMENTS\OS\BASE\SINGULARITY+\WINDOWS\WM\SYSTEMTRAYHOOK\BIN\X64\DEBUG\SYSTEMTRAYHOOK.RES
C:\USERS\JONATHAN_MOORE\DOCUMENTS\OS\BASE\SINGULARITY+\WINDOWS\WM\BIN\X64\DEBUG\SYSTEMTRAYHOOK64.ILK
C:\USERS\JONATHAN_MOORE\DOCUMENTS\OS\BASE\SINGULARITY+\WINDOWS\WM\BIN\X64\DEBUG\SYSTEMTRAYHOOK64.DLL
C:\USERS\JONATHAN_MOORE\DOCUMENTS\OS\BASE\SINGULARITY+\WINDOWS\WM\BIN\X64\DEBUG\SYSTEMTRAYHOOK64.PDB
